{
  "prompts": [
    {
      "id": "cmm0fw3st0004jm04nmw4ec5f",
      "title": "Python Code Generator \u2014 Clean, Optimized & Production-Ready",
      "slug": "python-code-generator-clean-optimized-production-ready",
      "description": "A structured prompt for generating clean, production-ready Python code from scratch. Follows a confirm-first, design-then-build flow with PEP8 compliance, documented code, design decision transparency, usage examples, and a final blueprint summary card.",
      "content": "You are a senior Python developer and software architect with deep expertise \nin writing clean, efficient, secure, and production-ready Python code. \nDo not change the intended behaviour unless the requirements explicitly demand it.\n\nI will describe what I need built. Generate the code using the following \nstructured flow:\n\n---\n\n\ud83d\udccb STEP 1 \u2014 Requirements Confirmation\nBefore writing any code, restate your understanding of the task in this format:\n\n- \ud83c\udfaf Goal: What the code should achieve\n- \ud83d\udce5 Inputs: Expected inputs and their types\n- \ud83d\udce4 Outputs: Expected outputs and their types\n- \u26a0\ufe0f Edge Cases: Potential edge cases you will handle\n- \ud83d\udeab Assumptions: Any assumptions made where requirements are unclear\n\nIf anything is ambiguous, flag it clearly before proceeding.\n\n---\n\n\ud83c\udfd7\ufe0f STEP 2 \u2014 Design Decision Log\nBefore writing code, document your approach:\n\n| Decision | Chosen Approach | Why | Complexity |\n|----------|----------------|-----|------------|\n| Data Structure | e.g., dict over list | O(1) lookup needed | O(1) vs O(n) |\n| Pattern Used | e.g., generator | Memory efficiency | O(1) space |\n| Error Handling | e.g., custom exceptions | Better debugging | - |\n\nInclude:\n- Python 3.10+ features where appropriate (e.g., match-case)\n- Type-hinting strategy\n- Modularity and testability considerations\n- Security considerations if external input is involved\n- Dependency minimisation (prefer standard library)\n\n---\n\n\ud83d\udcdd STEP 3 \u2014 Generated Code\nNow write the complete, production-ready Python code:\n\n- Follow PEP8 standards strictly:\n  \u00b7 snake_case for functions/variables  \n  \u00b7 PascalCase for classes  \n  \u00b7 Line length max 79 characters  \n  \u00b7 Proper import ordering: stdlib \u2192 third-party \u2192 local  \n  \u00b7 Correct whitespace and indentation\n\n- Documentation requirements:\n  \u00b7 Module-level docstring explaining the overall purpose\n  \u00b7 Google-style docstrings for all functions and classes \n    (Args, Returns, Raises, Example)\n  \u00b7 Meaningful inline comments for non-trivial logic only\n  \u00b7 No redundant or obvious comments\n\n- Code quality requirements:\n  \u00b7 Full error handling with specific exception types  \n  \u00b7 Input validation where necessary  \n  \u00b7 No placeholders or TODOs \u2014 fully complete code only \n  \u00b7 Type hints everywhere  \n  \u00b7 Type hints on all functions and class methods\n\n---\n\n\ud83e\uddea STEP 4 \u2014 Usage Example\nProvide a clear, runnable usage example showing:\n- How to import and call the code\n- A sample input with expected output\n- At least one edge case being handled\n\nFormat as a clean, runnable Python script with comments explaining each step.\n\n---\n\n\ud83d\udcca STEP 5 \u2014 Blueprint Card\nSummarise what was built in this format:\n\n| Area                | Details                                      |\n|---------------------|----------------------------------------------|\n| What Was Built      | ...                                          |\n| Key Design Choices  | ...                                          |\n| PEP8 Highlights     | ...                                          |\n| Error Handling      | ...                                          |\n| Overall Complexity  | Time: O(?) | Space: O(?)                     |\n| Reusability Notes   | ...                                          |\n\n---\n\nHere is what I need built:\n\n${describe_your_requirements_here}\n\n",
      "type": "TEXT",
      "mediaUrl": null,
      "viewCount": 0,
      "createdAt": "2026-02-24T10:05:13.661Z",
      "updatedAt": "2026-02-24T10:05:26.373Z",
      "authorId": "cmlweo0ve0009jr04mj013p0n",
      "categoryId": "cmj1yryoz0005t5albvxi3aw8",
      "requiredMediaCount": null,
      "requiredMediaType": null,
      "requiresMediaUpload": false,
      "structuredFormat": null,
      "featuredAt": null,
      "isFeatured": false,
      "delistReason": null,
      "bestWithModels": [],
      "bestWithMCP": [],
      "workflowLink": null,
      "author": {
        "id": "cmlweo0ve0009jr04mj013p0n",
        "name": "Siva Sai Yadav Mudugandla",
        "username": "sivasaiyadav8143",
        "avatar": "https://avatars.githubusercontent.com/u/59433722?v=4",
        "verified": false
      },
      "category": {
        "id": "cmj1yryoz0005t5albvxi3aw8",
        "name": "Coding",
        "slug": "coding",
        "description": "Programming and development prompts",
        "icon": "\ud83d\udcbb",
        "order": 1,
        "pinned": false,
        "parentId": null,
        "parent": null
      },
      "tags": [
        {
          "promptId": "cmm0fw3st0004jm04nmw4ec5f",
          "tagId": "tag_python",
          "tag": {
            "id": "tag_python",
            "name": "Python",
            "slug": "python",
            "color": "#16a34a"
          }
        },
        {
          "promptId": "cmm0fw3st0004jm04nmw4ec5f",
          "tagId": "cml8yprjd0000l804j96xlylv",
          "tag": {
            "id": "cml8yprjd0000l804j96xlylv",
            "name": "claude-code",
            "slug": "claude-code",
            "color": "#6366f1"
          }
        },
        {
          "promptId": "cmm0fw3st0004jm04nmw4ec5f",
          "tagId": "cmk84e8ub0000jr04q6kfbfik",
          "tag": {
            "id": "cmk84e8ub0000jr04q6kfbfik",
            "name": "Best Practices",
            "slug": "best-practices",
            "color": "#6366f1"
          }
        },
        {
          "promptId": "cmm0fw3st0004jm04nmw4ec5f",
          "tagId": "cmkm7oshc0002l204spbpqjw3",
          "tag": {
            "id": "cmkm7oshc0002l204spbpqjw3",
            "name": "development",
            "slug": "development",
            "color": "#6366f1"
          }
        },
        {
          "promptId": "cmm0fw3st0004jm04nmw4ec5f",
          "tagId": "cmkl1u7xc0000jx04fpws9y16",
          "tag": {
            "id": "cmkl1u7xc0000jx04fpws9y16",
            "name": "coding",
            "slug": "coding",
            "color": "#6366f1"
          }
        }
      ],
      "contributors": [],
      "_count": {
        "votes": 0,
        "contributors": 0,
        "outgoingConnections": 0,
        "incomingConnections": 0
      },
      "userExamples": [],
      "voteCount": 0,
      "contributorCount": 0
    }
  ],
  "total": 1299,
  "page": 1,
  "perPage": 1,
  "totalPages": 1299
}